-------------------------------------------------------------------------------
Test set: main.testjpa.CompanyRepositoryTest
-------------------------------------------------------------------------------
Tests run: 1, Failures: 0, Errors: 0, Skipped: 0, Time elapsed: 5.393 s - in main.testjpa.CompanyRepositoryTest
